<svg xmlns="http://www.w3.org/2000/svg" width="36.362" height="36.958" viewBox="0 0 36.362 36.958">
  <defs>
    <style>
      .cls-1 {
        fill: #53a4db;
      }

      .cls-2 {
        fill: #fff;
      }
    </style>
  </defs>
  <g id="telegram.805e47d0" transform="translate(0 0)">
    <rect id="矩形_2878" data-name="矩形 2878" class="cls-1" width="36.362" height="36.958" rx="10" transform="translate(0 -0.001)"/>
    <path id="路径_12797" data-name="路径 12797" class="cls-2" d="M14.946,20.789,14.611,25.5a1.171,1.171,0,0,0,.936-.453L17.794,22.9l4.656,3.41c.854.476,1.456.225,1.686-.786L27.193,11.2h0c.271-1.262-.456-1.756-1.289-1.446L7.94,16.634c-1.226.476-1.208,1.159-.208,1.469l4.593,1.429,10.668-6.676c.5-.332.959-.148.583.184Z" transform="translate(-0.053 0.373)"/>
  </g>
</svg>
